Nvars: 214
FDR: 1e-2
OOS R2:

10 Fold R2:
{'fit_time': array([12.44095707, 16.89127874, 16.00597548, 14.45632529, 12.49661469,
         9.02841377,  8.5413909 , 16.98751235, 27.05947518, 14.95389533]),
 'score_time': array([0.01061368, 0.00882816, 0.02424717, 0.01668668, 0.00746179,
        0.00777078, 0.00756264, 0.01084518, 0.0086813 , 0.01086998]),
 'test_score': array([0.93097144, 0.94642232, 0.95818281, 0.96942216, 0.96638181,
        0.96740401, 0.98271651, 0.98126383, 0.98762327, 0.96287034]),
 'train_score': array([0.99521753, 0.99551382, 0.99613848, 0.9949977 , 0.99528014,
        0.99646043, 0.99615346, 0.99533182, 0.99512293, 0.99532424])}

Mean R2: 0.9653
std R2: 0.01634

10 Fold MAPE
{'fit_time': array([11.38249278, 15.00493932, 14.48704481,  9.95577335,  8.98620248,
        13.49590421,  7.96711469, 14.95214176, 12.97049379,  9.48059344]),
 'score_time': array([0.01115799, 0.01423216, 0.01157188, 0.0141139 , 0.00850368,
        0.00872207, 0.01396441, 0.00840592, 0.0065434 , 0.00829697]),
 'test_score': array([0.04278091, 0.04611357, 0.05396122, 0.05116609, 0.05427809,
        0.05760896, 0.04655712, 0.04653852, 0.04127239, 0.0521363 ]),
 'train_score': array([0.01560062, 0.01555679, 0.01528842, 0.01660222, 0.01546417,
        0.01540102, 0.01612398, 0.01637263, 0.015561  , 0.01600052])}

Mean MAPE: 4.241%
std MAPE: 0.509