,Value,Feature
0,104,D_D01D02__variance
1,86,phase0__mean
2,69,phase1__variance
3,63,D02__variance
4,55,phase1__mean
5,50,D01__mean
6,48,phase0__maximum
7,46,dt_D12__standard_deviation
8,45,D02__maximum
9,42,dt2__minimum
10,38,dt_D02__minimum
11,36,dt_D12__minimum
12,35,dt_dt0__standard_deviation
13,35,D01__minimum
14,33,dt_dt2__root_mean_square
15,32,dt0__standard_deviation
16,31,dt1__minimum
17,30,dt_D02__variance
18,29,dt2__standard_deviation
19,29,D_D01D02__maximum
20,24,dt_dt0__minimum
21,23,phase1__median
22,21,dt1__maximum
23,21,D01__maximum
24,20,D12__minimum
25,18,dt_D01__root_mean_square
26,18,D02__minimum
27,16,phase0__minimum
28,16,D_dt1dt2__root_mean_square
29,16,D_dt1dt2__maximum
30,15,D02__median
31,14,D12__maximum
32,13,phase1__maximum
33,13,dt_dt0__maximum
34,13,D_dt0dt2__root_mean_square
35,11,dt_D12__maximum
36,11,D_D01D02__minimum
37,11,D01__median
38,10,dt0__minimum
39,9,dt_D02__maximum
40,9,dt0__maximum
41,8,D_dt1dt2__minimum
42,7,phase1__minimum
43,7,dt2__maximum
44,5,D12__median
45,3,D_dt0dt1__root_mean_square
46,3,D_D01D02__median
47,0,phase1__sum_values
48,0,phase1__standard_deviation
49,0,phase0__sum_values
50,0,dt_dt0__variance
51,0,dt_dt0__root_mean_square
52,0,dt_D12__variance
53,0,dt_D12__root_mean_square
54,0,dt_D02__standard_deviation
55,0,dt_D02__root_mean_square
56,0,dt2__variance
57,0,dt2__root_mean_square
58,0,dt0__variance
59,0,dt0__root_mean_square
60,0,D_dt1dt2__variance
61,0,D_dt1dt2__standard_deviation
62,0,D_D01D02__standard_deviation
63,0,D12__variance
64,0,D12__standard_deviation
65,0,D02__standard_deviation
66,0,D01__sum_values
